…
r_square = 
  boot_strap %>% 
  unnest(r_square) %>% 
  select(strap_number, r.squared)

r_square
```

    ## # A tibble: 5,000 x 2
    ##    strap_number r.squared
    ##    <chr>            <dbl>
    ##  1 0001             0.912
    ##  2 0002             0.908
    ##  3 0003             0.928
    ##  4 0004             0.910
    ##  5 0005             0.910
    ##  6 0006             0.912
    ##  7 0007             0.905
    ##  8 0008             0.914
    ##  9 0009             0.914
    ## 10 0010             0.918
    ## # ... with 4,990 more rows
…
intercept
```

    ## # A tibble: 5,000 x 4
    ##    strap_number beta0_hat beta1_hat   log
    ##    <chr>            <dbl>     <dbl> <dbl>
    ##  1 0001              6.97      1.05 0.863
    ##  2 0002              7.49      1.03 0.887
    ##  3 0003              6.88      1.07 0.865
    ##  4 0004              7.24      1.03 0.873
    ##  5 0005              7.27      1.05 0.881
    ##  6 0006              7.15      1.05 0.875
    ##  7 0007              7.39      1.04 0.888
    ##  8 0008              7.18      1.03 0.867
    ##  9 0009              7.31      1.03 0.877
    ## 10 0010              6.82      1.05 0.855
    ## # ... with 4,990 more rows
…
